<?xml version="1.0" encoding="utf-8"?>
<!-- Generator: Adobe Illustrator 24.0.0, SVG Export Plug-In . SVG Version: 6.00 Build 0)  -->
<svg version="1.0" id="Capa_1" xmlns="http://www.w3.org/2000/svg" xmlns:xlink="http://www.w3.org/1999/xlink" x="0px" y="0px"
	 viewBox="0 0 303 120" style="enable-background:new 0 0 303 120;" xml:space="preserve">
<style type="text/css">
	.st0{fill:none;stroke:#16BBD7;stroke-width:4;stroke-linecap:round;stroke-linejoin:round;stroke-miterlimit:10;}
	.st1{fill:none;stroke:#16BBD7;stroke-width:4;stroke-miterlimit:10;}
	.st2{fill:none;stroke:#16BBD7;stroke-width:4;stroke-linecap:round;stroke-linejoin:round;}
	.st3{fill:none;stroke:#16BBD7;stroke-width:4;stroke-linecap:round;stroke-linejoin:round;stroke-dasharray:11.6408,11.6408;}
	.st4{fill:none;stroke:#65810F;stroke-width:4;stroke-miterlimit:10;}
	.st5{fill:none;stroke:#65810F;stroke-width:4;stroke-linecap:round;stroke-linejoin:round;stroke-miterlimit:10;}
	.st6{fill-rule:evenodd;clip-rule:evenodd;fill:#FFFFFF;}
	.st7{opacity:0.5;fill:#16BBD7;}
	.st8{fill:#92CDD7;}
	.st9{fill:#FFFFFF;}
	.st10{fill:#48494B;}
	.st11{fill:#848283;}
	.st12{fill:#696667;}
	.st13{fill-rule:evenodd;clip-rule:evenodd;fill:#848283;}
	.st14{fill:#16BBD7;}
	.st15{fill:none;stroke:#9A6D02;stroke-width:4;stroke-linecap:round;stroke-linejoin:round;stroke-miterlimit:10;}
	.st16{fill:#10C0D5;}
	.st17{fill:#DFFF00;}
	.st18{fill:#BCED00;}
	.st19{fill:#10DED5;}
	.st20{fill:#FFE400;}
	.st21{fill:#FFB400;}
	.st22{fill:#B04D2D;}
	.st23{fill:#920A25;}
	.st24{fill:#54AD00;}
	.st25{fill:#1084D5;}
	.st26{fill:#397600;}
	.st27{fill:#10A1D5;}
	.st28{fill:#10FFD5;}
	.st29{fill:#69D126;}
	.st30{fill:#DB6038;}
	.st31{fill:#77797C;}
</style>
<g>
	<path class="st9" d="M280.9,58.9c-2.9-6.5-6.8-12.2-12-17.2c-4.3-4.1-9.4-6.2-15.2-6.4c-9.6-0.4-19.2-0.7-27.9,4.3c0,0,0.1,0,0.1,0
		c-2.3,2.1-4.6,4.2-6.8,6.3c-1.9,1.8-3.5,1.8-5.2-0.3c-1.7-2.2-3.4-4.4-5.3-6.4c-12.6-13.4-28.4-12-37.7,1.3c-1,1.5-2.4,2.8-3.8,4
		c-2.3,2-4.7,2.3-7,0c-2.5-2.4-5-4.8-7.5-7.1c-6.5-6.1-13.4-7-21.1-2.5c-3.3,1.9-6.5,4-9.4,6.5c-4.2,3.5-8.6,4.2-13.5,2.3
		c-4.5-1.7-9-3.6-13.4-5.4c-5.7-2.3-11.6-2.6-17.5-0.8c-4.9,1.5-13.5,6.3-17.7,10.1c-0.3,0.3-0.8,0.5-1.2,0.7
		c-2.8,1.4-5.7,2.5-8.9,2.3c-7-0.3-14.1,0.1-21.1-0.7c-2.4-0.3-4.8-0.5-7.5,0.3c5.9,2.5,11.5,4.8,17.2,7.1c3.3,1.3,6.6,2.7,10.1,3.6
		c6.8,1.8,13.5,0.9,19.8-2.2c9.4-4.6,18.5-5.2,27.3,1.2c1.8,1.3,3.7,2.3,5.7,3.2c8.2,3.6,16.1,3.5,23.5-1.9c2.1-1.6,4.3-3.2,6.5-4.6
		c3.4-2.1,6.2-1.8,9,1c1.3,1.3,2.5,2.7,3.8,4c9.1,9.5,20.4,10.5,31,2.5c2.7-2.1,5.1-4.6,7.7-6.9c3.8-3.3,6.2-3.4,10,0
		c3.4,3,6.5,6.2,9.9,9.2c5.8,5.2,12.5,6.4,19.9,4c5.8-1.9,9.7-5.9,13-10.8c4.6-6.7,6.1-6.8,11.2-0.7c2.8,3.4,6.2,5.9,10.3,7.4
		c6.1,2.2,12.3,3.9,18.9,2.4C281.6,67.2,283.2,64,280.9,58.9z M275.1,65.2c-3.7-0.2-7.3-0.7-10.9-1.5c-2.5-0.5-4.8-1.5-7-2.9
		c-1.9-1.3-2.8-2.3,0.2-3.6c3.7-1.6,7.2-3.6,10.8-5.4c-0.1-0.3-0.2-0.6-0.3-0.6c-6-0.8-6.1-0.8-6.3-6.7c-0.1-2.5-1-2.6-2.9-1.8
		c-1.3,0.5-2.7,0.7-4,1c-0.2,0.2-0.5,0.4-0.7,0.5c0.2-0.1,0.4-0.3,0.7-0.5c0.5-1.5,1.5-3.3-0.8-3.9c-1.9-0.4-2.7,1.1-2.6,3
		c-0.5-0.2-1.1-0.3-1.5-0.7c-4.9-3.4-4.9-3.5-8.9,1.4c0.8,1.8,1.6,3.7,2.4,5.5c2.8-0.5,4.4,0.7,5.5,3.3c1.3,2.9,2.6,5.9,4.7,8.4
		c-0.2,0.2-0.3,0.3-0.5,0.5c0,0,0,0,0,0c-2.7-1.3-4.2-3.9-6.2-5.9c-4.2-4.3-7-4.2-10.9,0.4c-1.3,1.6-2.5,3.3-3.7,5
		c-6.4,8.9-20,12.7-29.6,2.5c-2.7-2.8-5.7-5.4-8.6-8c-4.1-3.6-7.5-3.7-11.7-0.2c-2.6,2.1-4.9,4.6-7.5,6.7
		c-10.5,8.4-21.4,7.3-30.1-2.9c-2.8-3.3-5.6-6.5-10.7-5.5c-2.5,0.5-4.3,2-6.3,3.4c-3.8,2.6-7.3,5.6-12.1,6.4
		c-6.1,1-11.9-0.4-16.7-3.9c-10.7-7.8-21.3-7.6-32.8-1.9c-5.8,2.9-12.2,3.2-18.5,1c-4.4-1.5-8.8-3.3-14-5.2
		c5.5-1.4,9.9,0.8,14.4,1.2c3.3,0.3,6.6,1.1,9.9,1.7c1.4,0.2,2.8,0.2,4-0.6c4.3-3,9.1-4.2,14.2-4.6c2.1-0.2,3.7-1,5.5-1.8
		c0-1.9-0.1-3.9-0.1-5.8c-1.5-0.3-2.3,0.8-3.3,1.5c-2.4,1.7-4.9,2.8-8,2.4c-3.8-0.4-5.9,2.5-8,4.8c-3.3,3.8-6.9,1.8-10.6,1.4
		c5.8-1,10.4-4.3,15-7.6c10.2-7.4,21-9.8,32.7-3.4c1.6,0.9,3.4,1.4,5.1,2.2c7.4,3.4,14.3,3.6,20.8-2.4c2.5-2.3,5.6-4.1,8.6-5.8
		c5.7-3.2,11.3-2.7,16.3,1.6c3.1,2.6,5.8,5.6,8.9,8.2c3.7,3.1,6.5,3.1,10.1-0.1c1.8-1.6,3.3-3.5,4.8-5.4c7.7-9.8,18.9-11.3,29-3.9
		c3.6,2.6,6.2,6.1,9,9.5c3.6,4.4,5.8,4.7,9.6,0.6c11.2-11.8,25-10.4,39-8c3.5,0.6,6,3.3,8.5,5.7c4.4,4.3,7.7,9.5,10.2,15.1
		C280.9,64,279.9,65.4,275.1,65.2z"/>
	<path class="st9" d="M211.6,76.7c-3.8,0.1-6.4,2.5-7.5,6.8c-1.1,4.3-0.6,8.4,0.6,12.5c-3.8,0-7.6,0-11.7,0c3.3-6,6.3-11.6,9.5-17.2
		c1.2-2.2,1.2-4-1-5.7c-4.3-3.3-8.4-6.8-12.9-10.4c-1.1,3.8-0.4,6.6,2.8,8.6c1.6,1,2.9,2.6,4.5,3.8c1.7,1.2,2,2.3,0.9,4.2
		c-2.6,4.5-4.9,9.1-7.4,13.6c-0.5,0.9-0.6,2.7-2.1,2.3c-1-0.2-0.9-1.7-1.1-2.7c-1.6-7.3-3.1-14.6-4.7-21.9c-0.2-0.9,0.5-3.2-1.6-2.6
		c-1.5,0.4-3.8-0.2-4.3,2.5c-1.8,9.1-3.7,18.3-5.6,27.4c-0.5,2.3,1.2,2,2.4,2.4c1.5,0.5,2,0,2.2-1.5c0.4-2.8,1.1-5.6,1.6-8.5
		c0.3-1.7,1.2-1.9,2.6-1.8c1.4,0,2.4,0.2,2.6,1.9c0.3,2.7,0.9,5.4,1.5,8.2c0.2,0.8,0.4,2.4,1.2,2c3-1.6,5.4,1,8.2,0.6
		c2.5-0.4,5.1-0.2,7.6,0c3.1,0.2,5.8,0.2,4.7-4.5c0.7,0.5,1,0.7,1.2,0.9c5.1,5.3,11.6,3.8,13.8-3.2c1.1-3.7,1.1-7.5,0-11.2
		C218.3,78.7,215.5,76.6,211.6,76.7z M178.4,84.2c-0.8-0.1-1.4-0.5-1.2-1.2c0.7-2.3,0.1-5,1.6-7.6c0.4,2.8,0.7,5.1,0.9,7.5
		C179.9,83.8,179.5,84.3,178.4,84.2z M215.8,88.7c-0.1,4.7-1.7,7.8-3.9,7.3c-3.6-0.8-3.5-4.1-3.8-6.9c-0.2-2.1,0.1-4.1,1-6
		c0.5-1,1.3-2,2.5-2.1c1.4-0.1,2.3,0.9,3,2C215.7,84.9,216,87,215.8,88.7z"/>
	<path class="st9" d="M69,65.7c-1,1.6-1.5,3.3-2.1,5.1c-0.5,1.6-0.2,3.4-1.4,5c-0.3-0.5-0.5-0.7-0.6-1c-2-5.4-3.8-6.9-7.8-6.9
		c-3.8,0-6.7,2.3-8.4,7c-2.3,6.4-2.4,12.9-0.1,19.3c1.7,4.9,5.3,7.3,9.5,6.9c3.7-0.4,6.2-3.1,7.3-8.1c0.3-1.4,0.4-2.5-1.4-2.8
		c-1.6-0.3-2.9-0.7-3.2,1.7c-0.3,2-1.1,3.9-3.6,3.9c-2.5,0-3.7-1.8-4.2-3.9c-1.1-5-1.2-10,0-15c0.5-2.2,1.8-3.8,4.3-3.8
		c2.5,0,3.3,1.9,3.5,3.9c0.2,1.6,0.7,2.3,2.4,1.5c0.7-0.3,1.5-0.6,2.4-0.2c0,1.7-0.1,3.4,0,5.1c0.2,4.6,0.6,9.2,2.7,13.4
		c1.2,2.4,2.9,4.2,5.8,4.2c2.9,0,4.6-2,5.7-4.3c1.5-3,2.2-6.3,2.3-9.6c0-3.6,0-7.2,0.1-10.8c-0.3-3.7-1-7.3-3.1-10.5
		C76.4,61.3,71.8,61.2,69,65.7z M76.8,93.7c-0.4,1.2-1.2,2.4-2.6,2.4c-1.3,0-1.9-1.3-2.3-2.3c-1.5-3.9-2.2-8-2.1-12.2
		c-0.1-4.1,0.5-8,2-11.8c0.5-1.2,1.1-2.5,2.6-2.4c1.3,0.1,2,1.2,2.3,2.3C79.3,77.6,79.4,85.7,76.8,93.7z"/>
	<path class="st9" d="M166.2,73.2c-0.1-1.5-0.6-1.5-1.9-1.4c-2.4,0.3-3.6,1.1-3.9,3.8c-0.7,5.4-1.8,10.8-3,17.2
		c-0.3-1.6-0.4-2.1-0.5-2.7c-0.8-5.2-1.7-10.5-2.4-15.7c-0.4-2.9-2.9-2-4.5-2.8c-1.3-0.6-1.2,0.6-1.3,1.3
		c-0.9,8.4-1.7,16.7-2.7,25.1c-0.2,2.2,1.4,2,2.6,2.4c1.8,0.6,1.9-0.7,2-1.9c0.3-3.7,0.7-7.3,1-10.9c1.3,0.1,1.3,0.9,1.4,1.8
		c0.4,2.7,0.9,5.5,1.3,8.2c0.3,1.8,0.2,3.5,3,3.5c3,0.1,2.7-1.8,3.1-3.5c0.8-3.6,0.9-7.4,2.5-10.9c0.6,3.8,0.8,7.7,1.1,11.5
		c0.1,0.9-0.7,2.7,1.3,2.4c1.4-0.2,3.8,0.3,3.5-2.6C167.8,89.7,166.9,81.4,166.2,73.2z"/>
	<path class="st9" d="M257.9,75.6c-0.6-2.4-2.9-2-4.5-2.2c-1.6-0.3-1.3,1.5-1.6,2.5c-1,4.1-1.9,8.3-3.1,12.4
		c-0.9,3.3-1.2,6.9-3.1,10c-0.3-8.4-0.5-16.8-0.2-25.1c0.1-3.3-0.7-5.1-4.5-4.9c0,10.9,0,21.7,0,32.6c1.9-0.4,4-1.7,5.2-1.1
		c4.1,2.1,4.9,0.1,5.3-3.3c0.1-1.1,0.5-2.2,0.7-3.4c0.3-1.7,1-2.4,2.9-2.4c2.1,0,2.5,1,2.7,2.6c0.3,2,0.8,4,1.2,6.1
		c0.3,1.6,1.2,1.6,2.5,1.2c1.1-0.3,2.4-0.3,2-2C261.6,90.8,259.8,83.2,257.9,75.6z M254.8,86.8c-1.2,0-1.2-0.8-1-1.7
		c0.3-1.7,0.6-3.5,0.9-5.2c0.1,0,0.3,0,0.4,0c0.3,1.8,0.6,3.5,0.9,5.3C256.1,86.1,256,86.8,254.8,86.8z"/>
	<path class="st9" d="M238.9,68.5c0.1-3-1-2.8-3.2-2.1c-1.4,0.5-1.4,1.3-1.4,2.4c0,3.5,0,6.9,0,10.4c-0.1,3.6,0.4,7.2-0.4,11.8
		c-2.7-4.8-4.9-8.7-7-12.7c-0.6-1.2-1.4-1.9-2.7-1.3c-1,0.5-2.7,0.2-2.7,2.1c0,6.5,0,12.9,0,19.4c0,2.2,2.1,1.9,3.4,2
		c1.7,0.1,1-1.4,1.1-2.3c0.1-3.4,0-6.8,0-10.1c0.3-0.1,0.6-0.1,0.9-0.2c2.2,3.8,4.5,7.6,6.5,11.6c1.1,2.1,2.8,1.8,4.4,1.6
		c2-0.3,1.1-2,1.1-3.1C238.8,88.1,238.7,78.3,238.9,68.5z"/>
	<path class="st9" d="M96,71.9c-1.7-5-5.8-7.2-10.7-8.3c-1.5-0.3-2.1,0.1-2.1,1.7c0.1,3.6,0.1,7.1,0.1,10.7c0.4,3.8,0.4,7.6,0,11.3
		c0,3.6,0,7.1-0.1,10.7c-0.1,1.7,0.8,2.1,2.3,2.1c1.7,0,2.2-0.6,2.2-2.2c-0.1-2.8,0-5.5,0-8.3c1.4,2.3,2.4,4.6,2.9,7.1
		c0.8,3.6,3.1,3.9,6.1,3.4c-1.3-3.3-2.3-6.5-3.6-9.5c-0.8-1.8-0.6-3,0.8-4.6C97.9,81.9,97.7,76.9,96,71.9z M91,82.5
		c-0.7,0.8-1.5,1.7-2.6,1.3c-1.2-0.4-0.6-1.6-0.6-2.4c-0.1-1.7,0-3.4,0-5.2c0-1.7,0-3.4,0-5.2c0-0.6-0.3-1.5,0.6-1.7
		c0.5-0.1,1.1,0.3,1.5,0.6C93.1,72.4,93.7,79.4,91,82.5z"/>
	<path class="st9" d="M137.9,67.9c-0.4-2.1-2.2-1.8-3.5-2.1c-1.6-0.3-1.2,1.3-1.5,2.2c-0.4,1.4-0.6,2.9-0.9,4.4
		c-1.5,5.8-2,11.8-4.1,17.5c0,0,0,0-0.1,0c0,0,0,0,0,0l0.1-0.1c0.1,1,0.5,2.1-0.7,2.8c0.6,1.9-0.3,3.5-0.7,5.3
		c-0.4,2.2,1.3,2,2.5,2.4c1.4,0.5,2.1,0.1,2.3-1.5c0.4-3.1,1.2-6.1,1.6-9.1c0.3-1.8,1.3-2,2.9-2.1c1.7,0,2.2,0.8,2.4,2.2
		c0.4,3,1,5.9,1.4,8.8c0.2,1.2,0.2,2.4,2,1.7c1.2-0.5,3.2-0.1,2.7-2.6C142.2,87.9,140,77.9,137.9,67.9z M135.7,83.2
		c-0.9,0-1.6-0.3-1.4-1.4c0.3-1.8,0.6-3.7,0.9-5.5c0.2,0,0.5,0,0.7,0c0.3,1.8,0.6,3.5,0.8,5.3C136.9,82.5,136.9,83.2,135.7,83.2z"/>
	<path class="st9" d="M127.2,92.7C127.2,92.7,127.2,92.7,127.2,92.7L127.2,92.7C127.2,92.8,127.2,92.8,127.2,92.7
		c-0.1-0.9-0.7-2.1,0.6-2.7c-0.9-1-0.2-2.2-0.2-3.2c0-3.7-0.1-7.4-1.3-10.9c-1.4-4-4.2-6.4-7.3-6.3c-3.1,0.1-5.6,2.3-7,6.3
		c-0.4,1.1-0.3,2.5-1.6,3.1c-2.7-5.5-5.8-8.3-9.8-9c-1.9-0.4-3-0.1-2.9,2.3c0.1,8.6,0,17.3,0,25.9c0,1-0.6,2.7,1.5,2.3
		c1.4-0.3,3.1-0.1,3-2.4c-0.1-1.8,0-3.7,0-5.5c0-0.9-0.2-2,1-2.3c3.3-0.7,5.5-2.8,7.3-6.2c0.2,4.9,0.5,8.9,2.4,12.5
		c1.3,2.5,3.2,4.1,6.3,4c2.9,0,4.7-1.6,5.9-4C125.9,95.3,126.6,94,127.2,92.7C127.2,92.8,127.2,92.7,127.2,92.7
		C127.2,92.7,127.2,92.7,127.2,92.7C127.2,92.7,127.2,92.7,127.2,92.7z M106.3,82.5c-0.3,1.6-1.2,3.4-3,3.2c-2.1-0.2-0.6-2.2-1-3.3
		c-0.2-0.5,0-1.1,0-1.7c0-0.3-0.1-0.7,0-1c0.4-1.2-0.9-3.2,0.9-3.4c1.8-0.3,2.5,1.7,3,3.2C106.4,80.4,106.5,81.5,106.3,82.5z
		 M122,93.5c-0.5,1.2-1.1,2.4-2.5,2.5c-1.5,0.1-2.2-1.1-2.6-2.3c-2-5.7-2-11.5-0.1-17.2c0.4-1.2,1.1-2.5,2.6-2.4
		c1.4,0.1,2.1,1.3,2.6,2.5c1.1,2.8,1.4,5.8,1.3,8.8C123.3,88.1,122.9,90.9,122,93.5z M127.2,92.8L127.2,92.8
		C127.2,92.8,127.2,92.8,127.2,92.8L127.2,92.8z"/>
	<path class="st9" d="M152.2,47.4c-1.6-0.1-1.4-2-2.6-2.5c-1.5,2.2-2.4,4.8-5.2,7.2c0.5-3.7,2.9-5.4,3.6-7.8
		c-1.2-0.6-2.6,0.8-3.7-0.5c1.3-0.3,2-1.1,1.4-2.4c-0.3-0.6-1-1-1.7-0.7c-1.5,0.5-1.5,1.7-1.3,3c-1.7-1.6-3.4-3.2-5.1-4.8
		c-0.1,2.8-0.3,5.6-0.4,8.4c0.3,0.7,0.7,1.3,1,2c0.4,0.3,0.8,0.5,1.2,0.8c1.4-1.8,1.8-4.3,4.2-6c0,3-2.1,4.7-2.7,7
		c2.5,1.2,5.3,2.1,6.8,4.7c1.6-2.3,1.6-5.6,4.3-7.2l0,0C152.2,48.1,152.2,47.7,152.2,47.4z"/>
	<path class="st9" d="M196.1,51.7c2.1-3,3.8-5.3,5.4-7.6c-1.8,0.2-3.6,0.3-5.5,0.5c-1.1,2.2-2.1,4.3-3.2,6.5c3.2,0.5,5.8,2.1,7.4,5
		c1.2-1.6,2.3-3.3,3.6-4.9c0.6-0.7,0.9-2,2.3-1.4c-0.9-1.6-1.9-3.3-2.8-4.9C200.9,46.8,200.2,50.4,196.1,51.7z"/>
	<polygon class="st9" points="206.1,49.8 206.1,49.8 206.1,49.8 206.1,49.8 	"/>
	<path class="st9" d="M107.8,49.9c-0.7,2.2-1.4,4.4-2.1,6.5c0.2,0.3,0.3,0.5,0.5,0.8c1.4,0.9,2.9,1.8,4.3,2.7
		c0.4-2.4-0.5-4.9,0.8-7.9c1.4,3,0.5,5.6,0.9,8c1.8-1,3.6-2,5.4-2.9c0.2-0.3,0.4-0.6,0.6-1c-1.2-2.1-2.3-4.2-3.5-6.3
		C112.4,51.7,110.1,51.6,107.8,49.9z"/>
	<path class="st9" d="M209.9,57.2c-0.4-0.2-0.8-0.3-1.1-0.5c1-2.1,1.9-4.3,2.9-6.4c-1.8-0.1-3.7-0.3-5.5-0.4
		c-0.7,2.9-3.2,4.7-4.5,7.2c2,0,4,0,5.9-0.1c0,0,0,0,0,0c-0.7,0.8-1.8,1.6-0.8,2.9c0.5,0.7,1.2,1.1,2.1,0.8c1.4-0.4,1.5-1.5,1.4-2.7
		c2.1,1.9,4.2,3.7,6.3,5.6c0.2-3.3,0.4-6.5,0.6-9.8c-1.2-1-2.4-1.9-3.5-2.9C212.3,53,211.1,55.1,209.9,57.2z"/>
	<path class="st9" d="M164,53.7c0,2.9,0.1,5.7,0.1,8.6c2.4-1.3,4.1-3.4,5.9-5.4c-0.9-2.3-1.8-4.7-2.7-7
		C166.2,51.2,164.3,51.7,164,53.7z"/>
	<path class="st9" d="M159.1,49.8c-1,2.3-1.9,4.5-2.9,6.8c0.2,0.4,0.5,0.8,0.7,1.2c1.8,1.5,3.6,2.9,5.5,4.4c0-2.9,0.1-5.8,0.1-8.6
		C161.2,52.4,160.8,50.5,159.1,49.8z"/>
	<polygon class="st9" points="195,42.9 195,42.9 195,42.9 	"/>
	<path class="st9" d="M230.3,48.7C230.3,48.7,230.3,48.7,230.3,48.7c-0.2-0.4-0.3-0.9-0.5-1.3c-0.3-0.9-1-1.3-1.8-1
		c-0.7,0.2-1.1,0.8-0.9,1.6c0.2,0.9,0.9,1.2,1.8,1.1c0.4-0.1,0.9-0.1,1.3-0.1c0,0,0.1,0,0.1,0c0.7,2.3,1.5,4.5,2.7,6.5
		c1.8-1.2,1.9-3.8,4.2-4.6c-1.9-1.9-2.5-4.6-4.1-6.7C231.6,45.4,231.3,47.2,230.3,48.7z"/>
	<path class="st9" d="M122.1,48c1.1,2.4,2.1,4.8,3.2,7.2c1.6-0.5,2.1-2.5,3.9-2.9c-1.3-2.5-2.7-5.1-4-7.6
		C124.1,45.8,123.1,46.9,122.1,48z"/>
	<path class="st9" d="M223.4,50c1,2.2,2,4.4,3,6.6c0,0,0,0,0,0c-0.3,0.2-0.7,0.4-1,0.5c-1.1-2.1-2.3-4.3-3.4-6.4
		c-1.3,0.9-2.6,1.8-3.9,2.8c1.3,3.3,0.2,6.8,0.5,10.1c2.6-1.3,3.9-4,6.3-5.5c0,0,0,0,0,0c-0.1,1.2,0.1,2.3,1.6,2.7
		c0.8,0.2,1.4-0.2,1.8-0.8c0.8-1.3,0-2.2-0.9-2.9c1.4-0.1,2.9-0.2,4.4-0.4c-0.9-2.2-1.8-4.4-2.7-6.6C227.1,49.7,225.2,49.7,223.4,50
		z"/>
	<path class="st9" d="M168.7,49.2c1,2.5,2,5.1,3,7.6c1.7-0.2,3.3-0.3,5-0.5c-1.3-2.4-2.5-4.7-3.8-7.1
		C171.5,48.9,170.1,48.8,168.7,49.2z"/>
	<path class="st9" d="M94.7,45c-2-0.6-4-0.2-6,0.2c0,2,0,3.9,0,5.9c1.3,0.2,2.6,0.4,3.8,0.7C92.2,49.1,94.3,47.3,94.7,45z"/>
	<path class="st9" d="M96.3,45.5c-0.5,2.2-2.3,3.9-2.3,6.2c0.9,1.2,1.7,2.3,2.6,3.5c1-2.2,2-4.4,2.9-6.6
		C98.7,47.2,97.7,46.1,96.3,45.5z"/>
	<path class="st9" d="M120.8,49.2c-1.5-0.4-3-0.4-4.5,0c1.1,2.2,2.2,4.4,3.4,6.6l0,0c-0.5,0.1-1,0.2-1.5,0.3c-0.2,0.3-0.4,0.6-0.6,1
		c0.1,1.6,0.7,2.9,2.5,2.1c1.6-0.7,1-2,0.1-3.1c1.1-0.1,2.3-0.2,3.4-0.3C122.7,53.7,121.8,51.4,120.8,49.2z"/>
	<path class="st9" d="M234.6,43.3c1.1,2.1,2.2,4.2,3.4,6.3c1.2,0.2,2.4,0.3,3.6-0.1c-0.7-1.9-1.3-3.7-2-5.6
		C238,43.3,236.3,43.2,234.6,43.3z"/>
	<path class="st9" d="M82.8,42.9c-0.1,2,0.7,4.1-0.4,6.1c1.5,0.5,3.1,1,4.6,1.6c0-1.9,0.1-3.7,0.1-5.6C86,43.5,84.4,43.2,82.8,42.9z
		"/>
	<path class="st9" d="M177,44.3c1.3,2.3,2.5,4.5,3.8,6.8c1,0,2-0.1,3.1-0.1c-0.9-2.1-1.9-4.3-2.8-6.4C179.7,44.2,178.3,44,177,44.3z
		"/>
	<path class="st9" d="M174.1,48.4c1.3,2.3,2.6,4.6,3.9,6.9c0.5-1.1,1.1-2.2,1.6-3.2c-1.4-2.3-2.7-4.7-4.1-7
		C174.5,45.9,174.2,47.1,174.1,48.4z"/>
	<path class="st9" d="M129.8,43.2c-0.9,0.4-1.8,0.9-2.7,1.3c1,2.2,2,4.4,3,6.7c0.9,0,1.8,0,2.7-0.1
		C132.1,48.3,129.6,46.3,129.8,43.2z"/>
	<path class="st9" d="M137.6,38.7c-0.4-0.6-0.9-0.4-1.3,0c-2.1,1.2-3,3.8-5.6,4.4c1.2,2.4,2.4,4.8,3.7,7.2c0.4-0.3,0.8-0.6,1.2-0.9
		c0.5-0.8,1-1.6,1.5-2.4c-0.5,0.8-1,1.6-1.5,2.4c1.1,1.4,2.1,1.7,2.7-0.4c-0.3-0.7-0.7-1.3-1-2C137.4,44.3,137.5,41.5,137.6,38.7z"
		/>
	<path class="st9" d="M195,42.9C195,42.9,195,42.9,195,42.9C195,42.9,195,42.9,195,42.9C195,42.9,195,42.9,195,42.9z"/>
	<path class="st9" d="M198.2,41.9c0.1-0.6-0.4-1-0.9-1.3c-0.9-0.6-1.5,0-1.9,0.7c-0.3,0.5-0.3,1.1-0.4,1.6c0.5,0.1,1,0.4,1.6,0.4
		C197.5,43.4,198.1,42.8,198.2,41.9z"/>
	<path class="st9" d="M180.3,43.5c1.1,0,1.6-0.7,1.6-1.8c0-1-0.7-1.6-1.8-1.7c-0.9,0.1-1.6,0.5-1.7,1.6
		C178.4,42.9,179.1,43.6,180.3,43.5z"/>
	<path class="st9" d="M195.3,44.3c-0.1-0.5-0.2-0.9-0.3-1.4c-2.3-1.1-3.3-3.6-5.1-5.2c-1,3.2,0.1,6.5-0.7,9.7c0,0,0,0,0,0
		c-0.4-0.1-0.7-0.2-1.1-0.3c-0.1-3.2-0.2-6.5-0.3-9.7c-2.4,1.6-3.8,4.1-5.5,6.3c0.7,2.2,1.7,4.3,3.1,6.2c0.5-0.3,1-0.5,1.6-0.8
		c0,0,0,0,0,0c1.1,1.8,2.1,1.6,3-0.2l0,0c0.7,0.4,1.4,0.9,2.1,1.3l0,0c0.3,0.2,0.5,0.5,0.8,0.7c1.1-2.2,2.1-4.3,3.2-6.5
		C195.8,44.5,195.5,44.4,195.3,44.3z"/>
	<path class="st9" d="M155,56c0.9-2.4,1.8-4.8,2.7-7.2c-1.8-0.5-3.6-0.2-5.4-0.2c0,0-0.1-0.1-0.1-0.1c0,0,0,0,0,0
		c0.1,3.1-2.2,5.2-3,7.9c1.4,0.1,2.8,0.2,4.2,0.3c0,0,0,0,0,0c-0.8,1.1-1.5,2.1-0.4,3.4c0.7,0.8,1.6,0.9,2.5,0.7
		c1.6-0.4,1.6-1.8,1.6-3.1c-0.2-0.4-0.5-0.8-0.7-1.2C155.8,56.4,155.4,56.2,155,56z"/>
	<path class="st9" d="M104.4,56c0.6-2.2,1.2-4.5,1.9-6.7c-1.9-0.4-3.9-0.5-5.8,0.1c-0.8,2.2-1.5,4.4-2.3,6.6
		c1.7,0.1,3.5,0.2,5.2,0.3c0,0,0,0,0,0c-0.9,1-1.6,2-0.5,3.3c0.5,0.6,1.1,0.8,1.8,0.6c1.6-0.4,1.7-1.6,1.5-3
		c-0.2-0.2-0.3-0.5-0.5-0.8C105.3,56.3,104.8,56.1,104.4,56z"/>
</g>
</svg>
