<?xml version="1.0" encoding="utf-8"?>
<!-- Generator: Adobe Illustrator 24.0.0, SVG Export Plug-In . SVG Version: 6.00 Build 0)  -->
<svg version="1.0" id="Capa_1" xmlns="http://www.w3.org/2000/svg" xmlns:xlink="http://www.w3.org/1999/xlink" x="0px" y="0px"
	 viewBox="0 0 138 116" style="enable-background:new 0 0 138 116;" xml:space="preserve">
<style type="text/css">
	.st0{fill:none;stroke:#16BBD7;stroke-width:4;stroke-linecap:round;stroke-linejoin:round;stroke-miterlimit:10;}
	.st1{fill:none;stroke:#16BBD7;stroke-width:4;stroke-miterlimit:10;}
	.st2{fill:none;stroke:#16BBD7;stroke-width:4;stroke-linecap:round;stroke-linejoin:round;}
	.st3{fill:none;stroke:#16BBD7;stroke-width:4;stroke-linecap:round;stroke-linejoin:round;stroke-dasharray:11.6408,11.6408;}
	.st4{fill:none;stroke:#65810F;stroke-width:4;stroke-miterlimit:10;}
	.st5{fill:none;stroke:#65810F;stroke-width:4;stroke-linecap:round;stroke-linejoin:round;stroke-miterlimit:10;}
	.st6{fill-rule:evenodd;clip-rule:evenodd;fill:#FFFFFF;}
	.st7{opacity:0.5;fill:#16BBD7;}
	.st8{fill:#92CDD7;}
	.st9{fill:#FFFFFF;}
	.st10{fill:#48494B;}
	.st11{fill:#848283;}
	.st12{fill:#696667;}
	.st13{fill-rule:evenodd;clip-rule:evenodd;fill:#848283;}
	.st14{fill:#16BBD7;}
	.st15{fill:none;stroke:#9A6D02;stroke-width:4;stroke-linecap:round;stroke-linejoin:round;stroke-miterlimit:10;}
	.st16{fill:#10C0D5;}
	.st17{fill:#DFFF00;}
	.st18{fill:#BCED00;}
	.st19{fill:#10DED5;}
	.st20{fill:#FFE400;}
	.st21{fill:#FFB400;}
	.st22{fill:#B04D2D;}
	.st23{fill:#920A25;}
	.st24{fill:#54AD00;}
	.st25{fill:#1084D5;}
	.st26{fill:#397600;}
	.st27{fill:#10A1D5;}
	.st28{fill:#10FFD5;}
	.st29{fill:#69D126;}
	.st30{fill:#DB6038;}
	.st31{fill:#77797C;}
</style>
<g>
	<path class="st4" d="M42.9,93.7c0-3.2-2.6-6.9-5.9-6.9c-3.2,0-5.9,3.6-5.9,6.9s2.6,5.9,5.9,5.9C40.3,99.6,42.9,97,42.9,93.7z"/>
	<path class="st4" d="M42.9,81.3c0-3.2-2.6-1.9-5.9-1.9c-3.2,0-5.9-1.4-5.9,1.9s2.6,5.9,5.9,5.9C40.3,87.2,42.9,84.6,42.9,81.3z"/>
	<g>
		<line class="st5" x1="37" y1="23.2" x2="37" y2="79"/>
		<path class="st5" d="M36.4,69.6C44.7,69.6,48,57.4,48,49s-9.4-28.1-11.2-28.1S25.9,41.1,25.9,50.1S28.3,69.6,36.4,69.6z"/>
		<path class="st5" d="M26.1,54.3c0,0,8.3,2,10.6,6.5"/>
		<path class="st5" d="M30.4,37.9c0,0,5.3,3.4,6.5,8.1"/>
		<path class="st5" d="M43.1,33.3c0,0-6.3,4.2-6.5,8.4"/>
		<path class="st5" d="M47,43.6c0,0-6.7,6-9.4,10.2"/>
		<path class="st5" d="M47,50.9c0,0-6.7,6-9.4,10.2"/>
	</g>
	<path class="st4" d="M65.8,93.7c0-3.2-2.6-6.9-5.9-6.9s-5.9,3.6-5.9,6.9s2.6,5.9,5.9,5.9S65.8,97,65.8,93.7z"/>
	<path class="st4" d="M65.8,81.3c0-3.2-2.6-1.9-5.9-1.9s-5.9-1.4-5.9,1.9s2.6,5.9,5.9,5.9S65.8,84.6,65.8,81.3z"/>
	<g>
		<line class="st5" x1="60" y1="23.2" x2="60" y2="79"/>
		<path class="st5" d="M59.3,69.6c8.3,0,11.6-12.2,11.6-20.6s-9.4-28.1-11.2-28.1S48.8,41.1,48.8,50.1S51.3,69.6,59.3,69.6z"/>
		<path class="st5" d="M49.1,54.3c0,0,8.3,2,10.6,6.5"/>
		<path class="st5" d="M53.3,37.9c0,0,5.3,3.4,6.5,8.1"/>
		<path class="st5" d="M66.1,33.3c0,0-6.3,4.2-6.5,8.4"/>
		<path class="st5" d="M70,43.6c0,0-6.7,6-9.4,10.2"/>
		<path class="st5" d="M70,50.9c0,0-6.7,6-9.4,10.2"/>
	</g>
	<path class="st4" d="M88.8,93.7c0-3.2-2.6-6.9-5.9-6.9s-5.9,3.6-5.9,6.9s2.6,5.9,5.9,5.9S88.8,97,88.8,93.7z"/>
	<path class="st4" d="M88.8,81.3c0-3.2-2.6-1.9-5.9-1.9s-5.9-1.4-5.9,1.9s2.6,5.9,5.9,5.9S88.8,84.6,88.8,81.3z"/>
	<g>
		<line class="st5" x1="82.9" y1="23.2" x2="82.9" y2="79"/>
		<path class="st5" d="M82.3,69.6c8.3,0,11.6-12.2,11.6-20.6s-9.4-28.1-11.2-28.1c-1.8,0-10.9,20.3-10.9,29.2S74.2,69.6,82.3,69.6z"
			/>
		<path class="st5" d="M72,54.3c0,0,8.3,2,10.6,6.5"/>
		<path class="st5" d="M76.3,37.9c0,0,5.3,3.4,6.5,8.1"/>
		<path class="st5" d="M89,33.3c0,0-6.3,4.2-6.5,8.4"/>
		<path class="st5" d="M92.9,43.6c0,0-6.7,6-9.4,10.2"/>
		<path class="st5" d="M92.9,50.9c0,0-6.7,6-9.4,10.2"/>
	</g>
	<path class="st4" d="M111.8,93.7c0-3.2-2.6-6.9-5.9-6.9s-5.9,3.6-5.9,6.9s2.6,5.9,5.9,5.9S111.8,97,111.8,93.7z"/>
	<path class="st4" d="M111.8,81.3c0-3.2-2.6-1.9-5.9-1.9s-5.9-1.4-5.9,1.9s2.6,5.9,5.9,5.9S111.8,84.6,111.8,81.3z"/>
	<g>
		<line class="st5" x1="105.9" y1="23.2" x2="105.9" y2="79"/>
		<path class="st5" d="M105.3,69.6c8.3,0,11.6-12.2,11.6-20.6s-9.4-28.1-11.2-28.1c-1.8,0-10.9,20.3-10.9,29.2S97.2,69.6,105.3,69.6
			z"/>
		<path class="st5" d="M95,54.3c0,0,8.3,2,10.6,6.5"/>
		<path class="st5" d="M99.3,37.9c0,0,5.3,3.4,6.5,8.1"/>
		<path class="st5" d="M112,33.3c0,0-6.3,4.2-6.5,8.4"/>
		<path class="st5" d="M115.9,43.6c0,0-6.7,6-9.4,10.2"/>
		<path class="st5" d="M115.9,50.9c0,0-6.7,6-9.4,10.2"/>
	</g>
</g>
</svg>
