<?xml version="1.0" encoding="utf-8"?>
<!-- Generator: Adobe Illustrator 24.0.0, SVG Export Plug-In . SVG Version: 6.00 Build 0)  -->
<svg version="1.0" id="Capa_1" xmlns="http://www.w3.org/2000/svg" xmlns:xlink="http://www.w3.org/1999/xlink" x="0px" y="0px"
	 viewBox="0 0 211 165" style="enable-background:new 0 0 211 165;" xml:space="preserve">
<style type="text/css">
	.st0{fill:none;stroke:#16BBD7;stroke-width:4;stroke-linecap:round;stroke-linejoin:round;stroke-miterlimit:10;}
	.st1{fill:none;stroke:#16BBD7;stroke-width:4;stroke-miterlimit:10;}
	.st2{fill:none;stroke:#16BBD7;stroke-width:4;stroke-linecap:round;stroke-linejoin:round;}
	.st3{fill:none;stroke:#16BBD7;stroke-width:4;stroke-linecap:round;stroke-linejoin:round;stroke-dasharray:11.6408,11.6408;}
	.st4{fill:none;stroke:#65810F;stroke-width:4;stroke-miterlimit:10;}
	.st5{fill:none;stroke:#65810F;stroke-width:4;stroke-linecap:round;stroke-linejoin:round;stroke-miterlimit:10;}
	.st6{fill-rule:evenodd;clip-rule:evenodd;fill:#FFFFFF;}
	.st7{opacity:0.5;fill:#16BBD7;}
	.st8{fill:#92CDD7;}
	.st9{fill:#FFFFFF;}
	.st10{fill:#48494B;}
	.st11{fill:#848283;}
	.st12{fill:#696667;}
	.st13{fill-rule:evenodd;clip-rule:evenodd;fill:#848283;}
	.st14{fill:#16BBD7;}
	.st15{fill:none;stroke:#9A6D02;stroke-width:4;stroke-linecap:round;stroke-linejoin:round;stroke-miterlimit:10;}
	.st16{fill:#10C0D5;}
	.st17{fill:#DFFF00;}
	.st18{fill:#BCED00;}
	.st19{fill:#10DED5;}
	.st20{fill:#FFE400;}
	.st21{fill:#FFB400;}
	.st22{fill:#B04D2D;}
	.st23{fill:#920A25;}
	.st24{fill:#54AD00;}
	.st25{fill:#1084D5;}
	.st26{fill:#397600;}
	.st27{fill:#10A1D5;}
	.st28{fill:#10FFD5;}
	.st29{fill:#69D126;}
	.st30{fill:#DB6038;}
	.st31{fill:#77797C;}
</style>
<g>
	<path class="st8" d="M101.4,87.4c4-0.3,8,0.1,11.9-0.8c8.2-1.9,13.9-7,18.3-13.9c2.8-4.5,3.9-9.4,4.5-14.5c0.2-1.9,0.3-3.9,0.4-5.8
		c0.1-2.2-0.3-4.3-1.1-6.3c2-0.5,3.9-0.5,5.9-0.2c0.7,0.1,1.1,0.4,1.3,1.1c1.8,9,1.4,17.8-2.7,26.2c-2.3,4.9-5.7,8.8-9.4,12.6
		c-5.1,5.2-11.4,7.4-18.5,7.7c-3.1,0.1-6.2,0.8-9.4,0.7c-1,0-1.5-0.2-1.4-1.4C101.5,91.1,101,89.3,101.4,87.4z"/>
	<path class="st8" d="M98.1,86.2c0.2,2.3,0.1,4.6-0.2,6.9c-0.1,0.8-0.5,1.1-1.3,1c-6.4-0.6-12.1-2.9-16.6-7.7
		c-2.6-2.7-4.9-5.6-6.6-8.9c-2.1-4.3-3-8.9-2.8-13.8c0.1-1.4,0.8-2.1,2.2-2.1c1.4,0.1,2.9-0.4,4.2,0.5c0,2.7,0.9,5.1,1.9,7.6
		c1.4,3.2,3,6.1,5.7,8.3c1.1,0.9,2.2,1.9,3.2,2.9C90.8,83.7,94.2,85.4,98.1,86.2z"/>
	<g>
		<path class="st9" d="M77.6,58.7c0.6,0.1,1.2,0.2,1.8,0.2c4.1,0,7.5,1.9,10.7,4.2c3.7,2.7,6.5,6.3,8.2,10.6
			c0.2,0.5,0.2,1.1,1.1,1.5c1.1-9,3.5-17.3,10.3-23.4c6.7-6,14.2-10.1,23.9-9c-3.9-6.3-9.3-10.4-15.4-13.3
			c-9.6-4.7-18.9-2.5-27.7,2.2c-5.2,2.8-8.9,7.3-11.1,12.9c-1.5,4-3.5,7.9-3.1,12.4C76.4,58,76.7,58.6,77.6,58.7z"/>
		<path class="st9" d="M129.1,46.2c-10.3,1.3-18,6.7-22.5,15.8c-4,7.9-5.4,16.5-5.1,25.4c4-0.3,8,0.1,11.9-0.8
			c8.2-1.9,13.9-7,18.3-13.9c2.8-4.5,3.9-9.4,4.5-14.5c0.2-1.9,0.3-3.9,0.4-5.8c0.1-2.2-0.3-4.3-1.1-6.3
			C133.3,46.3,131.2,46,129.1,46.2z"/>
		<path class="st9" d="M48.4,112.3c-0.2-2.9-0.6-5.8-0.9-8.7c-0.2-1.4-1-2.2-2.4-2.5c-1.4-0.3-2.1,0.4-2.8,1.6
			c-2.2,4.2-4.1,8.4-6.1,12.7c-0.3,0.5-0.3,1.3-1,1.6c-2.2-4.6-4.3-9.2-6.7-13.7c-0.9-1.6-2.2-2.2-4-2.2c-1.1,0-1.6,0.4-1.7,1.6
			c-0.7,7-1.3,14.1-1.6,21.1c-0.2,3.3-0.1,3.2,3.2,3.3c1.2,0,1.5-0.3,1.6-1.5c0.2-4.5,0.4-9.1,0.7-13.6c0-0.4-0.2-1,0.4-1.1
			c0.5-0.1,0.6,0.5,0.8,0.9c1.4,3,2.8,6,4.2,8.9c0.3,0.7,0.7,1.5,1.2,2.1c1.4,1.7,3.6,1.4,4.5-0.5c0.5-1.1,1-2.3,1.5-3.4
			c1.3-2.9,2.7-5.7,4.3-9c0.1,0.7,0.2,1,0.2,1.2c0.2,4.2,0.5,8.4,0.7,12.6c0.2,3.3,0.2,3.3,3.5,3.3c1,0,1.4-0.2,1.3-1.3
			C48.9,121.3,48.8,116.8,48.4,112.3z"/>
		<path class="st9" d="M77,62.2c0,2.7,0.9,5.1,1.9,7.6c1.4,3.2,3,6.1,5.7,8.3c1.1,0.9,2.2,1.9,3.2,2.9c2.9,2.7,6.3,4.5,10.2,5.2
			c0.2-4-1.4-7.5-2.9-11C91.7,67.3,85.9,62.6,77,62.2z"/>
		<path class="st9" d="M70.8,118.2c0-2.6,0-5.2,0-7.8c0-1.6-0.7-2.5-2.2-2.9c-2.2-0.5-4.4-0.7-6.6-0.4c-5.2,0.7-7.9,3.5-8.5,8.6
			c-0.1,1.2-0.1,2.5,0,3.7c0.6,5.7,5.2,9.1,10.2,7.6c1.4-0.4,2.7-1.4,4.1,0.1c0.2,0.2,0.7,0.1,1.1,0.2c1.4,0.2,2.1-0.1,2-1.8
			C70.6,123.2,70.8,120.7,70.8,118.2z M64.8,123.1c-3.6,0.9-6.1-0.8-6.7-4.4c-0.2-1.2-0.2-2.5,0.1-3.7c0.7-3.1,4.2-5,7.2-3.8
			c0.6,0.2,0.6,0.7,0.6,1.2c0,1.6,0,3.1,0,4.7c0,1.5-0.1,3,0,4.5C66.1,122.6,65.6,122.9,64.8,123.1z"/>
		<path class="st9" d="M193,125.7c-0.1-2.5,0-5,0-7.4c0-2.5,0-5.1,0-7.6c0-2-0.6-2.7-2.5-3.2c-2.1-0.5-4.3-0.6-6.4-0.3
			c-4.9,0.7-7.6,3.4-8.3,8.3c-0.2,1.4-0.2,2.9,0,4.4c0.7,5.4,5,8.6,9.9,7.4c1.5-0.4,3-1.7,4.5,0c0.2,0.2,0.7,0.1,1.1,0.1
			C192.6,127.6,193.1,127.1,193,125.7z M187.6,123c-2.8,1.2-5.9,0-6.9-2.9c-0.7-1.9-0.7-3.8,0-5.7c0.9-2.7,4.5-4.2,7.1-3.1
			c0.6,0.3,0.5,0.8,0.5,1.2c0,1.6,0,3.1,0,4.7c0,1.5,0,3,0,4.5C188.3,122.3,188.3,122.7,187.6,123z"/>
		<path class="st9" d="M131,107.5c-5.5-2.1-11,0.8-12.3,6.5c-0.4,1.8-0.5,3.6-0.3,5.5c0.3,2.5,1.1,4.9,3.5,6.3
			c3.7,2.2,7.7,2.1,11.7,0.8c1.1-0.4,1.9-1.3,1.9-2.6c0-0.9-0.2-1.5-1.4-1.2c-2.3,0.6-4.6,0.8-6.9,0.3c-1.7-0.4-3-1.2-3.6-2.9
			c-0.4-1-0.4-1.6,1-1.5c1.7,0.1,3.3,0,5,0c1.7,0,3.5-0.1,5.2,0c1,0,1.4-0.2,1.3-1.2c0-1.8-0.1-3.6-0.7-5.3
			C134.6,110,133.2,108.4,131,107.5z M130.1,115.2c-1,0-1.9,0-2.9,0c-0.8,0-1.6,0-2.4,0c-1.7,0-1.8-0.2-1.2-1.7
			c0.7-1.7,2.4-2.7,4.3-2.5c1.8,0.2,2.9,1.3,3.2,3.1C131.2,115,131,115.3,130.1,115.2z"/>
		<path class="st9" d="M92.7,114.4c-0.2-6-4.3-8.8-10.1-6.8c-1.2,0.4-2.3,1.2-3.5-0.2c-0.3-0.3-1-0.3-1.5-0.3
			c-1.2-0.2-1.8,0.2-1.8,1.7c0.1,2.8,0,5.6,0,8.4c0,2.3,0,4.5,0,6.8c0,3.2,0,3.1,3.2,3.2c1.2,0,1.5-0.4,1.5-1.5
			c-0.1-4.3,0-8.5,0-12.8c0-0.6-0.1-1.3,0.8-1.5c3.4-0.7,6.7-0.5,6.7,4.7c0,2.6,0,5.2,0,7.8c0,3.5,0,3.5,3.5,3.4
			c0.8,0,1.2-0.2,1.1-1.1C92.7,122.1,92.8,118.2,92.7,114.4z"/>
		<path class="st9" d="M114.1,117.9c0-1,0-2.1,0-3.1c0-1.9,0.1-3.8,0-5.7c-0.1-1.6-1.3-2.3-3.4-2.2c-1.8,0-1.2,1.3-1.2,2.2
			c0,4.1,0,8.2,0,12.3c0,0.5,0.2,1-0.4,1.4c-2.4,1.6-6.2,0-6.6-2.8c-0.2-1.2-0.1-2.5-0.2-3.7c0-2.3,0.1-4.5-0.1-6.8
			c-0.1-2-2.4-3.2-4.2-2.5c-0.4,0.2-0.5,0.4-0.5,0.7c0.1,4.5-0.4,9,0.2,13.4c0.7,5.1,4.8,7.5,9.6,5.7c1.2-0.4,2.3-1.2,3.5,0.2
			c0.3,0.3,1,0.2,1.5,0.3c1.2,0.1,1.7-0.1,1.7-1.5C114,123.2,114.1,120.6,114.1,117.9z"/>
		<path class="st9" d="M172.1,123c-0.6,0.2-1.3,0.2-1.9,0.2c-2.9,0.1-4-1-4-3.8c0-1.7,0-3.5,0-5.2c0-2.8,0-2.7,2.8-2.8
			c1,0,1.9,0.1,2.9-0.1c1.5-0.5,1.7-1.6,1.6-3c-0.1-1.5-1.2-0.9-2-0.9c-1.2-0.1-2.5-0.1-3.7,0c-1.2,0.1-1.7-0.2-1.7-1.6
			c0.1-2.4-0.9-3.2-3.4-3.2c-1,0-1.3,0.3-1.3,1.3c0.1,2.7,0,5.4,0,8.1c0,0,0.1,0,0.1,0c0,3-0.2,6.1,0,9.1c0.5,5.3,5.1,7.9,10,5.8
			c1.2-0.5,1.9-1.3,2-2.7C173.7,123.2,173.5,122.5,172.1,123z"/>
		<path class="st9" d="M144.9,101.5c0-0.4,0-0.9-0.1-1.3c-0.3-1.4-1.6-2.1-3.6-2c-1.6,0.1-0.9,1.3-0.9,2.1c-0.1,4.1,0,8.2,0,12.3
			c0,3.8,0,7.6,0,11.3c0,3.1,0,3.1,3.1,3.1c1.2,0,1.6-0.3,1.5-1.5C144.9,117.5,144.9,109.5,144.9,101.5z"/>
		<path class="st9" d="M155.8,117.9c0-2.4,0-4.8,0-7.1c0-0.7,0-1.4-0.2-2.1c-0.3-1.3-1.8-1.9-3.6-1.7c-1.6,0.2-0.9,1.4-0.9,2.1
			c-0.1,4.9,0,9.7,0,14.6c0,3.5,0,3.4,3.5,3.4c0.9,0,1.2-0.3,1.2-1.2C155.8,123.2,155.8,120.6,155.8,117.9z"/>
		<path class="st9" d="M153.5,98.5c-1.7,0-2.7,1-2.8,2.7c-0.1,1.8,0.9,2.8,2.6,2.8c1.7,0,2.7-1,2.8-2.7
			C156.2,99.6,155.2,98.5,153.5,98.5z"/>
	</g>
</g>
</svg>
