<?xml version="1.0" encoding="utf-8"?>
<!-- Generator: Adobe Illustrator 24.0.0, SVG Export Plug-In . SVG Version: 6.00 Build 0)  -->
<svg version="1.0" id="Capa_1" xmlns="http://www.w3.org/2000/svg" xmlns:xlink="http://www.w3.org/1999/xlink" x="0px" y="0px"
	 viewBox="0 0 253 158" style="enable-background:new 0 0 253 158;" xml:space="preserve">
<style type="text/css">
	.st0{opacity:0.2;fill:#FFFFFF;}
	.st1{opacity:0.4;fill:#FFFFFF;}
	.st2{fill:#FFFFFF;}
	.st3{fill:#16BBD7;}
	.st4{fill:none;stroke:#FFFFFF;stroke-width:4;stroke-linecap:round;stroke-linejoin:round;stroke-miterlimit:10;}
	.st5{fill:none;stroke:#FFFFFF;stroke-width:4;stroke-miterlimit:10;}
	.st6{fill:none;stroke:#204721;stroke-width:4;stroke-linecap:round;stroke-linejoin:round;stroke-miterlimit:10;}
	.st7{fill:none;stroke:#204721;stroke-width:4;stroke-miterlimit:10;}
	.st8{fill:none;stroke:#204721;stroke-width:4;stroke-linecap:round;stroke-linejoin:round;}
	.st9{fill:none;stroke:#204721;stroke-width:4;stroke-linecap:round;stroke-linejoin:round;stroke-dasharray:12.3982,12.3982;}
	.st10{fill-rule:evenodd;clip-rule:evenodd;fill:#FFFFFF;}
	.st11{opacity:0.5;fill:#16BBD7;}
	.st12{fill:#92CDD7;}
	.st13{fill:#204721;}
	.st14{fill:url(#SVGID_1_);}
	.st15{fill:none;}
	.st16{clip-path:url(#SVGID_3_);}
	.st17{clip-path:url(#SVGID_5_);fill:none;stroke:#10C0D5;stroke-width:1.068;stroke-miterlimit:10;}
	.st18{clip-path:url(#SVGID_7_);fill:none;stroke:#10C0D5;stroke-width:1.068;stroke-miterlimit:10;}
	.st19{clip-path:url(#SVGID_9_);fill:none;stroke:#10C0D5;stroke-width:1.068;stroke-miterlimit:10;}
	.st20{clip-path:url(#SVGID_11_);fill:none;stroke:#10C0D5;stroke-width:1.068;stroke-miterlimit:10;}
	.st21{clip-path:url(#SVGID_13_);fill:none;stroke:#10C0D5;stroke-width:1.068;stroke-miterlimit:10;}
	.st22{clip-path:url(#SVGID_15_);fill:none;stroke:#10C0D5;stroke-width:1.068;stroke-miterlimit:10;}
	.st23{clip-path:url(#SVGID_17_);fill:none;stroke:#10C0D5;stroke-width:1.068;stroke-miterlimit:10;}
	.st24{clip-path:url(#SVGID_19_);fill:none;stroke:#10C0D5;stroke-width:1.068;stroke-miterlimit:10;}
	.st25{clip-path:url(#SVGID_21_);fill:none;stroke:#10C0D5;stroke-width:1.068;stroke-miterlimit:10;}
	.st26{clip-path:url(#SVGID_23_);fill:none;stroke:#10C0D5;stroke-width:1.068;stroke-miterlimit:10;}
	.st27{clip-path:url(#SVGID_25_);fill:none;stroke:#10C0D5;stroke-width:1.068;stroke-miterlimit:10;}
	.st28{clip-path:url(#SVGID_27_);fill:none;stroke:#10C0D5;stroke-width:1.068;stroke-miterlimit:10;}
	.st29{clip-path:url(#SVGID_29_);fill:none;stroke:#10C0D5;stroke-width:1.068;stroke-miterlimit:10;}
	.st30{clip-path:url(#SVGID_31_);fill:none;stroke:#10C0D5;stroke-width:1.068;stroke-miterlimit:10;}
	.st31{clip-path:url(#SVGID_33_);fill:none;stroke:#10C0D5;stroke-width:1.068;stroke-miterlimit:10;}
	.st32{clip-path:url(#SVGID_35_);fill:none;stroke:#10C0D5;stroke-width:1.068;stroke-miterlimit:10;}
	.st33{clip-path:url(#SVGID_37_);fill:none;stroke:#10C0D5;stroke-width:1.068;stroke-miterlimit:10;}
	.st34{clip-path:url(#SVGID_39_);fill:none;stroke:#10C0D5;stroke-width:1.068;stroke-miterlimit:10;}
	.st35{clip-path:url(#SVGID_41_);fill:none;stroke:#10C0D5;stroke-width:1.068;stroke-miterlimit:10;}
	.st36{clip-path:url(#SVGID_43_);fill:none;stroke:#10C0D5;stroke-width:1.068;stroke-miterlimit:10;}
	.st37{clip-path:url(#SVGID_45_);fill:none;stroke:#10C0D5;stroke-width:1.068;stroke-miterlimit:10;}
	.st38{clip-path:url(#SVGID_47_);}
	.st39{clip-path:url(#SVGID_49_);fill:none;stroke:#10C0D5;stroke-width:1.068;stroke-miterlimit:10;}
	.st40{clip-path:url(#SVGID_51_);fill:none;stroke:#10C0D5;stroke-width:1.068;stroke-miterlimit:10;}
	.st41{clip-path:url(#SVGID_53_);fill:none;stroke:#10C0D5;stroke-width:1.068;stroke-miterlimit:10;}
	.st42{clip-path:url(#SVGID_55_);fill:none;stroke:#10C0D5;stroke-width:1.068;stroke-miterlimit:10;}
	.st43{clip-path:url(#SVGID_57_);fill:none;stroke:#10C0D5;stroke-width:1.068;stroke-miterlimit:10;}
	.st44{clip-path:url(#SVGID_59_);fill:none;stroke:#10C0D5;stroke-width:1.068;stroke-miterlimit:10;}
	.st45{clip-path:url(#SVGID_61_);fill:none;stroke:#10C0D5;stroke-width:1.068;stroke-miterlimit:10;}
	.st46{clip-path:url(#SVGID_63_);fill:none;stroke:#10C0D5;stroke-width:1.068;stroke-miterlimit:10;}
	.st47{clip-path:url(#SVGID_65_);fill:none;stroke:#10C0D5;stroke-width:1.068;stroke-miterlimit:10;}
	.st48{clip-path:url(#SVGID_67_);fill:none;stroke:#10C0D5;stroke-width:1.068;stroke-miterlimit:10;}
	.st49{clip-path:url(#SVGID_69_);fill:none;stroke:#10C0D5;stroke-width:1.068;stroke-miterlimit:10;}
	.st50{clip-path:url(#SVGID_71_);fill:none;stroke:#10C0D5;stroke-width:1.068;stroke-miterlimit:10;}
	.st51{clip-path:url(#SVGID_73_);fill:none;stroke:#10C0D5;stroke-width:1.068;stroke-miterlimit:10;}
	.st52{clip-path:url(#SVGID_75_);fill:none;stroke:#10C0D5;stroke-width:1.068;stroke-miterlimit:10;}
	.st53{clip-path:url(#SVGID_77_);fill:none;stroke:#10C0D5;stroke-width:1.068;stroke-miterlimit:10;}
	.st54{clip-path:url(#SVGID_79_);fill:none;stroke:#10C0D5;stroke-width:1.068;stroke-miterlimit:10;}
	.st55{clip-path:url(#SVGID_81_);fill:none;stroke:#10C0D5;stroke-width:1.068;stroke-miterlimit:10;}
	.st56{clip-path:url(#SVGID_83_);fill:none;stroke:#10C0D5;stroke-width:1.068;stroke-miterlimit:10;}
	.st57{clip-path:url(#SVGID_85_);fill:none;stroke:#10C0D5;stroke-width:1.068;stroke-miterlimit:10;}
	.st58{clip-path:url(#SVGID_87_);fill:none;stroke:#10C0D5;stroke-width:1.068;stroke-miterlimit:10;}
	.st59{clip-path:url(#SVGID_89_);fill:none;stroke:#10C0D5;stroke-width:1.068;stroke-miterlimit:10;}
	.st60{clip-path:url(#SVGID_91_);}
	.st61{clip-path:url(#SVGID_93_);fill:#1084D5;}
	.st62{clip-path:url(#SVGID_93_);fill:#10A1D5;}
	.st63{clip-path:url(#SVGID_95_);}
	.st64{clip-path:url(#SVGID_97_);}
	.st65{filter:url(#Adobe_OpacityMaskFilter);}
	.st66{clip-path:url(#SVGID_99_);fill:url(#SVGID_101_);}
	.st67{clip-path:url(#SVGID_99_);mask:url(#SVGID_100_);fill:url(#SVGID_102_);}
	.st68{clip-path:url(#SVGID_106_);}
	.st69{clip-path:url(#SVGID_108_);}
	.st70{clip-path:url(#SVGID_110_);}
	.st71{clip-path:url(#SVGID_114_);}
	.st72{clip-path:url(#SVGID_116_);}
	.st73{clip-path:url(#SVGID_118_);fill:#10C0D5;}
	.st74{clip-path:url(#SVGID_118_);fill:none;stroke:#FFFFFF;stroke-width:15;stroke-miterlimit:10;}
</style>
<path class="st6" d="M239,122c0,0-29,5-36-19c-3.5-11.9-10.9-27-26-27c-22,0-26,34-26,34s14-73.2-34-72c-40,1-20.6,72.1-30,75
	c-13,4-6-30-25-28c0,0-4.9-23.7-16-14C30,85,19,84,22,92s17,4,35-1c0,0,13.9-1.4,12,24c-2,27,44,28,42-6c0,0-5-44,5-44
	c7,0,7,44,7,44c0,11,7,25,25,25c27,0,26.3-23.2,32-33.5c0.9-1.7,3.4-1.4,4,0.4C187.7,113.4,200.8,141.9,239,122z"/>
<line class="st6" x1="98" y1="100" x2="92" y2="100"/>
<line class="st6" x1="98" y1="88" x2="91.3" y2="88"/>
<line class="st6" x1="98" y1="78" x2="91.3" y2="78"/>
<line class="st6" x1="98" y1="66.7" x2="92" y2="66.7"/>
<line class="st6" x1="101.1" y1="58" x2="94.7" y2="56.1"/>
<line class="st6" x1="105.2" y1="49.6" x2="100.2" y2="45.2"/>
<line class="st6" x1="111.7" y1="45.6" x2="109.7" y2="39.2"/>
<line class="st6" x1="120.7" y1="44.8" x2="120.7" y2="38.1"/>
<line class="st6" x1="144.5" y1="101" x2="150.5" y2="101"/>
<line class="st6" x1="144.5" y1="89" x2="151.2" y2="89"/>
<line class="st6" x1="144.5" y1="79" x2="151.2" y2="79"/>
<line class="st6" x1="144.6" y1="67.7" x2="150.6" y2="67.7"/>
<line class="st6" x1="141.4" y1="59" x2="147.8" y2="57.1"/>
<line class="st6" x1="134.3" y1="51.6" x2="139.3" y2="47.2"/>
<line class="st6" x1="128.7" y1="47.6" x2="131" y2="41.3"/>
<line class="st6" x1="158" y1="106.7" x2="152" y2="106.7"/>
<line class="st6" x1="161.1" y1="98" x2="154.7" y2="96.1"/>
<line class="st6" x1="165.2" y1="89.6" x2="160.2" y2="85.2"/>
<line class="st6" x1="171.7" y1="85.6" x2="169.7" y2="79.2"/>
<line class="st6" x1="180.7" y1="84.8" x2="180.7" y2="78.1"/>
<line class="st6" x1="199" y1="109" x2="205" y2="109"/>
<line class="st6" x1="195.4" y1="103" x2="201.8" y2="101.1"/>
<line class="st6" x1="191.3" y1="95.6" x2="196.3" y2="91.2"/>
<line class="st6" x1="188.7" y1="87.6" x2="191" y2="81.3"/>
<rect x="-355.3" y="143.4" class="st15" width="1920" height="1585.3"/>
<g>
	<defs>
		<rect id="SVGID_90_" x="-355.3" y="143.4" width="1920" height="1585.3"/>
	</defs>
	<clipPath id="SVGID_1_">
		<use xlink:href="#SVGID_90_"  style="overflow:visible;"/>
	</clipPath>
	<g style="clip-path:url(#SVGID_1_);">
		<defs>
			<rect id="SVGID_92_" x="-355.3" y="-1050.7" width="1920" height="1080"/>
		</defs>
		<clipPath id="SVGID_3_">
			<use xlink:href="#SVGID_92_"  style="overflow:visible;"/>
		</clipPath>
		<path style="clip-path:url(#SVGID_3_);fill:#1084D5;" d="M1146,424.9c-145.5-54.3-274.4-127.4-393.9-223.3
			C646.7,116.9,561.1,25.1,478.3-63.6C343.2-208.3,215.6-345,20.2-431.4c-121.9-53.9-254.2-93.8-393.1-118.7
			c-111.2-19.9-227-30.2-344-30.7c-78-0.3-146.3,3.9-338.3,252.2L1144.1,823.2l196.8-356C1273.7,462.3,1208.5,448.2,1146,424.9"/>
		<path style="clip-path:url(#SVGID_3_);fill:#10A1D5;" d="M-367.9-576.3c141,25.2,275.3,65.7,399.1,120.5
			c199.9,88.4,329.2,226.9,466,373.5c166.5,178.4,338.7,362.9,658.4,482.2c63.5,23.7,130.1,37.6,198.7,41.6l229.9-439
			c-104.4,2.3-202.5-2.7-292-15c-122.3-16.7-229-47.1-317-90.2c-129-63.2-236.1-132.8-327.4-212.8
			C567-386.2,508.1-456.2,451.1-523.9C355-638.2,264.3-746.1,81.5-841.8c-142.3-74.5-288.1-128.6-433.1-160.8
			c-116-25.7-231.9-37.6-344.5-35.2c-40.8,0.9-78.3,3.6-111.9,7.3l-212.1,405l60.7,31.8c59.7-7.1,143.6-14,243-13.6
			C-598-606.8-480.7-596.4-367.9-576.3"/>
	</g>
</g>
<g>
	<defs>
		<rect id="SVGID_94_" x="-355.3" y="143.4" width="1920" height="1585.3"/>
	</defs>
	<clipPath id="SVGID_5_">
		<use xlink:href="#SVGID_94_"  style="overflow:visible;"/>
	</clipPath>
	<g style="clip-path:url(#SVGID_5_);">
		<defs>
			<rect id="SVGID_96_" x="-355.3" y="-1050.7" width="1920" height="1080"/>
		</defs>
		<clipPath id="SVGID_7_">
			<use xlink:href="#SVGID_96_"  style="overflow:visible;"/>
		</clipPath>
		<g style="clip-path:url(#SVGID_7_);">
			<defs>
				<path id="SVGID_98_" d="M1615.4-272c0-247.7-369.1-448.5-824.4-448.5S-33.5-519.7-33.5-272s369.1,448.5,824.4,448.5
					S1615.4-24.3,1615.4-272"/>
			</defs>
			<clipPath id="SVGID_9_">
				<use xlink:href="#SVGID_98_"  style="overflow:visible;"/>
			</clipPath>
			<defs>
				<filter id="Adobe_OpacityMaskFilter" filterUnits="userSpaceOnUse" x="-33.5" y="-720.6" width="1648.9" height="897">
					<feColorMatrix  type="matrix" values="1 0 0 0 0  0 1 0 0 0  0 0 1 0 0  0 0 0 1 0"/>
				</filter>
			</defs>
			<mask maskUnits="userSpaceOnUse" x="-33.5" y="-720.6" width="1648.9" height="897" id="SVGID_11_">
				<g class="st65">
					
						<radialGradient id="SVGID_13_" cx="-6214.8838" cy="2417.5322" r="1" gradientTransform="matrix(824.4402 0 0 -448.5133 5124591.5 1084023.5)" gradientUnits="userSpaceOnUse">
						<stop  offset="0" style="stop-color:#FFFFFF"/>
						<stop  offset="1" style="stop-color:#000000"/>
					</radialGradient>
					<rect x="-33.5" y="-720.6" style="clip-path:url(#SVGID_9_);fill:url(#SVGID_13_);" width="1648.9" height="897"/>
				</g>
			</mask>
			
				<radialGradient id="SVGID_15_" cx="-6214.8838" cy="2417.5322" r="1" gradientTransform="matrix(824.4403 0 0 -448.5134 5124592 1084023.5)" gradientUnits="userSpaceOnUse">
				<stop  offset="0" style="stop-color:#10C0D5"/>
				<stop  offset="1" style="stop-color:#10C0D5"/>
			</radialGradient>
			
				<rect x="-33.5" y="-720.6" style="clip-path:url(#SVGID_9_);mask:url(#SVGID_11_);fill:url(#SVGID_15_);" width="1648.9" height="897"/>
		</g>
	</g>
</g>
<g>
	<defs>
		<rect id="SVGID_103_" x="-355.3" y="143.4" width="1920" height="1585.3"/>
	</defs>
	<clipPath id="SVGID_17_">
		<use xlink:href="#SVGID_103_"  style="overflow:visible;"/>
	</clipPath>
</g>
<g>
	<defs>
		<rect id="SVGID_105_" x="-355.3" y="143.4" width="1920" height="1585.3"/>
	</defs>
	<clipPath id="SVGID_19_">
		<use xlink:href="#SVGID_105_"  style="overflow:visible;"/>
	</clipPath>
</g>
<g>
	<defs>
		<rect id="SVGID_113_" x="-355.3" y="143.4" width="1920" height="1585.3"/>
	</defs>
	<clipPath id="SVGID_21_">
		<use xlink:href="#SVGID_113_"  style="overflow:visible;"/>
	</clipPath>
</g>
</svg>
